…
``` r
filter(c.sup, AFR=='Post-industrial', Effort=="Intensive", Suppression=="Extinction")
```

    ## # A tibble: 42 x 4
    ## # Groups:   Case, AFR [42]
    ##    Case  AFR             Effort    Suppression
    ##    <chr> <chr>           <fct>     <chr>      
    ##  1 170b  Post-industrial Intensive Extinction 
    ##  2 170c  Post-industrial Intensive Extinction 
    ##  3 170d  Post-industrial Intensive Extinction 
    ##  4 170e  Post-industrial Intensive Extinction 
    ##  5 170f  Post-industrial Intensive Extinction 
    ##  6 170g  Post-industrial Intensive Extinction 
    ##  7 170h  Post-industrial Intensive Extinction 
    ##  8 170i  Post-industrial Intensive Extinction 
    ##  9 170j  Post-industrial Intensive Extinction 
    ## 10 170k  Post-industrial Intensive Extinction 
    ## # … with 32 more rows
…
